{
    "app-id": "org.gnome.gitlab.entryrow.Devel",
    "runtime": "org.gnome.Platform",
    "runtime-version": "master",
    "sdk": "org.gnome.Sdk",
    "sdk-extensions": ["org.freedesktop.Sdk.Extension.rust-stable"],
    "command": "entry-row",
    "finish-args" : [
        "--socket=fallback-x11",
        "--socket=wayland",
        "--device=dri",
        "--talk-name=org.a11y.Bus",
        "--env=RUST_LOG=entryrow=debug",
        "--env=G_MESSAGES_DEBUG=none"
    ],
    "build-options" : {
        "append-path" : "/usr/lib/sdk/rust-stable/bin",
        "build-args" : [
            "--share=network"
        ],
        "test-args": [
            "--socket=x11",
            "--share=network"
        ],
        "env" : {
            "RUST_BACKTRACE": "1"
        }
    },
    "modules": [
        {
            "name" : "libadwaita",
            "buildsystem" : "meson",
            "cleanup": [
                "/include",
                "/lib/pkgconfig"
            ],
            "config-opts": [
                "-Dgtk_doc=false",
                "-Dtests=false",
                "-Dexamples=false",
                "-Dvapi=false"
            ],
            "sources" : [
                {
                    "type" : "git",
                    "url" : "https://gitlab.gnome.org/GNOME/libadwaita.git",
                    "branch" : "main"
                }
            ],
            "modules" : [
                {
                    "name" : "libsass",
                    "buildsystem" : "meson",
                    "cleanup": ["*"],
                    "sources" : [
                        {
                            "type" : "git",
                            "url" : "https://github.com/lazka/libsass.git",
                            "branch" : "meson"
                        }
                    ]
                },
                {
                    "name" : "sassc",
                    "buildsystem" : "meson",
                    "cleanup": ["*"],
                    "sources" : [
                        {
                            "type" : "git",
                            "url" : "https://github.com/lazka/sassc.git",
                            "branch" : "meson"
                        }
                    ]
                }
            ]
        },
        {
            "name": "entry-row",
            "buildsystem": "meson",
            "run-tests": true,
            "config-opts": ["-Dprofile=development"],
            "sources": [
                {
                    "type": "dir",
                    "path": "../"
                }
            ]
        }
    ]
}
